@startuml
title Authenticate
start
while(Your account exists ?) is (No)
    :Create Account;
endwhile (Yes)
while(Do you forgot your password ?) is (Yes)
    :Password Rest;
endwhile (no)
    :Welcome my page;
stop
@enduml
